<svg xmlns="http://www.w3.org/2000/svg" width="14.767" height="16.001" viewBox="0 0 14.767 16.001">
  <g id="Back" transform="translate(-57.086 -70.147)">
    <line id="Line_3" data-name="Line 3" y1="13.117" x2="7" transform="translate(63.5 71.5)" fill="none" stroke="#29abe2" stroke-linecap="round" stroke-width="2"/>
    <line id="Line_4" data-name="Line 4" x2="4.117" y2="4.234" transform="translate(58.5 80.5)" fill="none" stroke="#29abe2" stroke-linecap="round" stroke-width="2"/>
  </g>
</svg>
